{
  "test75.xml":{
    "title": "test75",
    "tags": ["Thin Target"]
  },
  "gflasha.xml":{
    "title": "gflasha",
    "tags": ["FastSim"]
  },
  "sc_aux.xml":{
    "title": "sc_aux",
    "tags": ["Aux"]
  }, 
  "ATLHECTB.xml":{
    "title": "ATLHECTB",
    "tags": ["Hadronic"]
  },
  "HGCALTB.xml":{
    "title": "HGCALTB",
    "tags": ["Hadronic"]
  },
  "ATLTileCalTB.xml":{
    "title": "ATLTileCalTB",
    "tags": ["Hadronic"]
  },
  "CALICESiWTB.xml":{
    "title": "CALICESiWTB",
    "tags": ["Hadronic"]
  },
    "tt_hA_ITEP.xml":{
    "title": "ITEP:hA",
    "tags": ["Thin Target"]
  },
  "tt_pp_multiplicity.xml":{
    "title": "NA61: p + p, multiplicity",
    "tags": ["Thin Target"]
  },
  "tt_pp2lambda_NA61.xml":{
    "title": "NA61: p + p -> Lambda + X",
    "tags": ["Thin Target"]
  },
  "tt_pp_NA61.xml":{
    "title": "NA61: p + p",
    "tags": ["Thin Target"]
  },
  "tt_pimC_NA61.xml":{
    "title": "NA61:pi- + C",
    "tags": ["Thin Target"]
  },
  "tt_pC_NA61.xml": {
    "title": "NA61: p + C",
    "tags": ["Thin Target"]
  },
  "heavy_ion_therapy.xml": {
    "title": "heavy ion therapy",
    "tags": ["G4MSBG"]
  },
  "sc-electron.xml": {
    "title": "Simplified calo - e-",
    "tags": ["Hadronic"]
  },
  "sc-pion-.xml": {
    "title": "Simplified calo - pi-",
    "tags": ["Hadronic"]
  },
  "sc-anti_proton.xml": {
    "title": "Simplified calo - anti_proton",
    "tags": ["Hadronic"]
  },
  "sc-proton.xml": {
    "title": "Simplified calo - proton",
    "tags": ["Hadronic"]
  },
  "sc-kaon0L.xml": {
    "title": "Simplified calo - kaon0L",
    "tags": ["Hadronic"]
  },
  "sc-em.xml": {
    "title": "Simplified calo (ECAL)",
    "tags": ["EM"]
  },
  "AttenuationTest.xml": {
    "title": "PhotonAttenuation",
    "tags": ["G4MSBG"]
  },
  "Bremsstrahlung.xml": {
    "title": "Bremsstrahlung",
    "tags": ["G4MSBG"]
  },
  "ElectronScattering.xml": {
    "title": "ElecForwScat",
    "tags": ["G4MSBG"]
  },
  "CCCStest.xml": {
    "title": "C12FragCC",
    "tags": ["G4MSBG"]
  },
  "brachy.xml": {
    "title": "Brachy",
    "tags": ["G4MSBG"]
  },
  "TestDEDX2.xml": {
    "title": "ElectronDEDX",
    "tags": ["G4MSBG"]
  },
  "NeutronYield.xml": {
    "title": "ProtonC12NeutronYield",
    "tags": ["G4MSBG"]
  },
  "ElecBackScat.xml": {
    "title": "ElecBackScat",
    "tags": ["G4MSBG"]
  },
  "fanoCavity.xml": {
    "title": "FanoCavity",
    "tags": ["G4MSBG"]
  },
  "LowEFrag.xml": {
    "title": "LowEC12Frag",
    "tags": ["G4MSBG"]
  },
  "UCSFRawBeamLine.xml": {
    "title": "LowEProtonBraggBeak",
    "tags": ["G4MSBG"]
  },
  "FluctTest.xml": {
    "title": "FluctTest",
    "tags": ["EM"]
  },
  "FragTest-angular.xml": {
    "title": "C12Frag-angular",
    "tags": ["G4MSBG"]
  },
  "FragTest-energy.xml": {
    "title": "C12Frag-energy",
    "tags": ["G4MSBG"]
  },
  "FragTest-energy-Z1.xml": {
    "title": "C12Frag-energy-Z1",
    "tags": ["G4MSBG"]
  },
  "FragTest-energy-Z2.xml": {
    "title": "C12Frag-energy-Z2",
    "tags": ["G4MSBG"]
  },
  "FragTest-energy-Z3.xml": {
    "title": "C12Frag-energy-Z3",
    "tags": ["G4MSBG"]
  },
  "FragTest-energy-Z4.xml": {
    "title": "C12Frag-energy-Z4",
    "tags": ["G4MSBG"]
  },
  "FragTest-energy-Z5.xml": {
    "title": "C12Frag-energy-Z5",
    "tags": ["G4MSBG"]
  },
  "FragTest.xml": {
    "title": "C12Frag",
    "tags": ["G4MSBG"]
  },
  "FragTest-yield.xml": {
    "title": "FragTest-yield",
    "tags": ["G4MSBG"]
  },
  "MscHanson.xml": {
    "title": "MscHanson",
    "tags": ["EM"]
  },
  "microyz.xml": {
    "title": "Microyz",
    "tags": ["G4MSBG"]
  },
  "ratioexample.xml": {
    "title": "Ratio example",
    "tags": []
  },
  "test22-HARP-p2pi-.xml": {
    "title": "Test22-HARP p2pi-",
    "tags": ["Hadronic"]
  },
  "test22-HARP-p2pi+.xml": {
    "title": "Test22-HARP p2pi+",
    "tags": ["Hadronic"]
  },
  "test22-HARP-p2p.xml": {
    "title": "Test22-HARP p2p",
    "tags": ["Hadronic"]
  },
  "test22-HARP-pi-2pi-.xml": {
    "title": "Test22-HARP pi-2pi-",
    "tags": ["Hadronic"]
  },
  "test22-HARP-pi-2pi+.xml": {
    "title": "Test22-HARP pi-2pi+",
    "tags": ["Hadronic"]
  },
  "test22-HARP-pi+2pi-.xml": {
    "title": "Test22-HARP pi+2pi-",
    "tags": ["Hadronic"]
  },
  "test22-HARP-pi+2pi+.xml": {
    "title": "Test22-HARP pi+2pi+",
    "tags": ["Hadronic"]
  },
  "test22-HARP-pi-2p.xml": {
    "title": "Test22-HARP pi-2p",
    "tags": ["Hadronic"]
  },
  "test22-HARP-pi+2p.xml": {
    "title": "Test22-HARP pi+2p",
    "tags": ["Hadronic"]
  },
  "test22-NA61-kaon0s.xml": {
    "title": "Test22-NA61 kaon0s",
    "tags": ["Hadronic"]
  },
  "test22-NA61-kaons.xml": {
    "title": "Test22-NA61 kaons",
    "tags": ["Hadronic"]
  },
  "test22-NA61-proton-pi.xml": {
    "title": "Test22-NA61 proton-pi",
    "tags": ["Hadronic"]
  },
  "test22-NA61.xml": {
    "title": "test22-NA61",
    "tags": ["Hadronic"]
  },
  "test37.xml": {
    "title": "Test37",
    "tags": ["EM"]
  },
  "TestEm12-DPK.xml": {
    "title": "LowEElecDPK",
    "tags": ["G4MSBG"]
  },
  "TestEm3.xml": {
    "title": "TestEm3",
    "tags": ["EM"]
  },
  "TestEm9.xml": {
    "title": "TestEm9",
    "tags": ["EM"]
  },
  "TestHd.xml": {
    "title": "NucNucInelXS",
    "tags": ["G4MSBG"]
  },
  "tileatlas.xml": {
    "title": "Tileatlas",
    "tags": ["EM"]
  },
  "tileatlas_ext.xml": {
    "title": "Tileatlas_extended",
    "tags": ["EM"]
  },
  "tileatlas_100GeV.xml": {
    "title": "Tileatlas_100GeV",
    "tags": ["EM"]
  },
  "BragPeakGSI_proton.xml": {
    "title": "ProtonC12BraggPeak",
    "tags": ["G4MSBG"]
  },
  "BragPeakGSI_LightIons.xml": {
    "title": "LightIonBraggPeak",
    "tags": ["G4MSBG"]
  },
  "Hadr00.xml": {
    "title": "Hadr00",
    "tags": ["Hadronic"]
  },
  "Hadr00-total.xml": {
    "title": "Hadr00-totalXS",
    "tags": ["Hadronic"]
  },
  "Hadr00-gamma-total.xml": {
    "title": "Hadr00-gammaXS",
    "tags": ["Hadronic"]
  },
  "Hadr00-elastic.xml": {
    "title": "Hadr00-elasticXS",
    "tags": ["Hadronic"]
  },
  "Hadr00-inelastic.xml": {
    "title": "Hadr00-inelasticXS",
    "tags": ["Hadronic"]
  },
  "mammo_G4MSBG.xml": {
    "title": "Mammo",
    "tags": ["G4MSBG"]
  },
  "medical_linac.xml": {
    "title": "Medical Linac",
    "tags": ["G4MSBG"]
  },
  "hadrontherapy.xml": {
    "title": "hadrontherapy",
    "tags": ["G4MSBG"]
  },
  "pet_imaging.xml": {
    "title": "PET imaging system test",
    "tags": ["G4MSBG"]
  }
}
